ERROR - 2021-01-23 17:44:33 --> Query error: You have an error in your SQL syntax; check the manual that corresponds to your MariaDB server version for the right syntax to use near 'LIMIT 5' at line 6 - Invalid query: SELECT s.*, e.first_name, e.last_name 
            FROM disc_submission AS s
            JOIN employe AS e
            ON s.approver = e.nip
            WHERE s.user = 
            LIMIT 5
ERROR - 2021-01-23 17:45:48 --> Query error: You have an error in your SQL syntax; check the manual that corresponds to your MariaDB server version for the right syntax to use near 'LIMIT 5' at line 6 - Invalid query: SELECT s.*, e.first_name, e.last_name 
            FROM disc_submission AS s
            JOIN employe AS e
            ON s.approver = e.nip
            WHERE s.user = 
            LIMIT 5
ERROR - 2021-01-23 17:47:09 --> Jalur Unggah tampaknya tidak sah.
ERROR - 2021-01-23 17:47:24 --> Jalur Unggah tampaknya tidak sah.
ERROR - 2021-01-23 17:47:24 --> Severity: Notice --> Array to string conversion /var/www/html/application/controllers/api/Submission.php 75
ERROR - 2021-01-23 17:47:41 --> Jalur Unggah tampaknya tidak sah.
ERROR - 2021-01-23 17:47:51 --> Jalur Unggah tampaknya tidak sah.
ERROR - 2021-01-23 17:59:22 --> Query error: You have an error in your SQL syntax; check the manual that corresponds to your MariaDB server version for the right syntax to use near 'LIMIT 5' at line 6 - Invalid query: SELECT s.*, e.first_name, e.last_name 
            FROM disc_submission AS s
            JOIN employe AS e
            ON s.approver = e.nip
            WHERE s.user = 
            LIMIT 5
ERROR - 2021-01-23 17:59:43 --> Severity: Warning --> Illegal string offset 'file_name' /var/www/html/application/controllers/api/Submission.php 55
ERROR - 2021-01-23 18:00:32 --> Severity: Notice --> Trying to get property of non-object /var/www/html/application/controllers/api/Submission.php 55
ERROR - 2021-01-23 18:03:03 --> Severity: Notice --> Trying to get property of non-object /var/www/html/application/controllers/api/Submission.php 57
ERROR - 2021-01-23 18:03:32 --> Severity: Notice --> Trying to get property of non-object /var/www/html/application/controllers/api/Submission.php 57
ERROR - 2021-01-23 18:03:48 --> Severity: Notice --> Trying to get property of non-object /var/www/html/application/controllers/api/Submission.php 57
ERROR - 2021-01-23 18:04:23 --> Severity: Warning --> Illegal string offset 'file_name' /var/www/html/application/controllers/api/Submission.php 55
ERROR - 2021-01-23 18:04:33 --> Severity: Notice --> Trying to get property of non-object /var/www/html/application/controllers/api/Submission.php 55
ERROR - 2021-01-23 18:05:15 --> Severity: Notice --> Trying to get property of non-object /var/www/html/application/controllers/api/Submission.php 56
ERROR - 2021-01-23 18:05:57 --> Severity: Notice --> Trying to get property of non-object /var/www/html/application/controllers/api/Submission.php 56
ERROR - 2021-01-23 18:06:42 --> Severity: Notice --> Trying to get property of non-object /var/www/html/application/controllers/api/Submission.php 47
ERROR - 2021-01-23 18:06:56 --> Severity: Warning --> Illegal string offset 'status' /var/www/html/application/controllers/api/Submission.php 47
ERROR - 2021-01-23 18:07:19 --> Severity: Notice --> Trying to get property of non-object /var/www/html/application/controllers/api/Submission.php 47
ERROR - 2021-01-23 18:13:11 --> Severity: Notice --> Array to string conversion /var/www/html/application/controllers/api/Submission.php 49
ERROR - 2021-01-23 18:14:17 --> Severity: Notice --> Trying to get property of non-object /var/www/html/application/controllers/api/Submission.php 59
