ERROR - 2019-03-21 14:39:52 --> Query error: No database selected - Invalid query: SELECT `email`, `email`, `id`, `password`, `active`, `last_login`
FROM `users`
WHERE `email` = 'admin@admin.com'
ORDER BY `id` DESC
 LIMIT 1
ERROR - 2019-03-21 14:42:06 --> Severity: Notice --> Undefined property: Auth::$ion_auth D:\Project\PHP\BaseCI\application\controllers\Auth.php 30
ERROR - 2019-03-21 14:42:06 --> Severity: Error --> Call to a member function logged_in() on null D:\Project\PHP\BaseCI\application\controllers\Auth.php 30
ERROR - 2019-03-21 14:47:01 --> Severity: Notice --> Undefined property: Auth::$set_item D:\Project\PHP\BaseCI\application\controllers\Auth.php 18
ERROR - 2019-03-21 14:47:01 --> Severity: Error --> Call to a member function language() on null D:\Project\PHP\BaseCI\application\controllers\Auth.php 18
ERROR - 2019-03-21 14:55:50 --> Could not find the language line "index_heading"
ERROR - 2019-03-21 14:55:50 --> Could not find the language line "index_heading"
ERROR - 2019-03-21 14:55:50 --> Could not find the language line "index_subheading"
ERROR - 2019-03-21 14:55:50 --> Could not find the language line "index_fname_th"
ERROR - 2019-03-21 14:55:50 --> Could not find the language line "index_lname_th"
ERROR - 2019-03-21 14:55:50 --> Could not find the language line "index_email_th"
ERROR - 2019-03-21 14:55:50 --> Could not find the language line "index_groups_th"
ERROR - 2019-03-21 14:55:50 --> Could not find the language line "index_status_th"
ERROR - 2019-03-21 14:55:50 --> Could not find the language line "index_action_th"
ERROR - 2019-03-21 14:55:50 --> Could not find the language line "index_active_link"
ERROR - 2019-03-21 14:55:50 --> Could not find the language line "index_create_user_link"
ERROR - 2019-03-21 14:55:50 --> Could not find the language line "index_create_group_link"
ERROR - 2019-03-21 14:57:24 --> 404 Page Not Found: Authib/logout
